<?xml version="1.0" encoding="UTF-8" standalone="no"?>
<svg
   xmlns:dc="http://purl.org/dc/elements/1.1/"
   xmlns:cc="http://creativecommons.org/ns#"
   xmlns:rdf="http://www.w3.org/1999/02/22-rdf-syntax-ns#"
   xmlns:svg="http://www.w3.org/2000/svg"
   xmlns="http://www.w3.org/2000/svg"
   xmlns:sodipodi="http://sodipodi.sourceforge.net/DTD/sodipodi-0.dtd"
   xmlns:inkscape="http://www.inkscape.org/namespaces/inkscape"
   width="410mm"
   height="379mm"
   viewBox="0 0 410 379"
   version="1.1"
   preserveAspectRatio="xMidYMid meet"
   id="svg15"
   sodipodi:docname="Overall.svg"
   inkscape:version="0.92.3 (2405546, 2018-03-11)">
  <metadata
     id="metadata21">
    <rdf:RDF>
      <cc:Work
         rdf:about="">
        <dc:format>image/svg+xml</dc:format>
        <dc:type
           rdf:resource="http://purl.org/dc/dcmitype/StillImage" />
        <dc:title></dc:title>
      </cc:Work>
    </rdf:RDF>
  </metadata>
  <defs
     id="defs19">
    <inkscape:path-effect
       effect="bspline"
       id="path-effect1161"
       is_visible="true"
       weight="33.333333"
       steps="2"
       helper_size="0"
       apply_no_weight="true"
       apply_with_weight="true"
       only_selected="false" />
    <inkscape:path-effect
       effect="bspline"
       id="path-effect1157"
       is_visible="true"
       weight="33.333333"
       steps="2"
       helper_size="0"
       apply_no_weight="true"
       apply_with_weight="true"
       only_selected="false" />
    <inkscape:path-effect
       effect="bspline"
       id="path-effect1153"
       is_visible="true"
       weight="33.333333"
       steps="2"
       helper_size="0"
       apply_no_weight="true"
       apply_with_weight="true"
       only_selected="false" />
    <inkscape:path-effect
       effect="bspline"
       id="path-effect1149"
       is_visible="true"
       weight="33.333333"
       steps="2"
       helper_size="0"
       apply_no_weight="true"
       apply_with_weight="true"
       only_selected="false" />
    <inkscape:path-effect
       effect="bspline"
       id="path-effect1145"
       is_visible="true"
       weight="33.333333"
       steps="2"
       helper_size="0"
       apply_no_weight="true"
       apply_with_weight="true"
       only_selected="false" />
    <inkscape:path-effect
       effect="bspline"
       id="path-effect1141"
       is_visible="true"
       weight="33.333333"
       steps="2"
       helper_size="0"
       apply_no_weight="true"
       apply_with_weight="true"
       only_selected="false" />
    <inkscape:path-effect
       effect="bspline"
       id="path-effect1137"
       is_visible="true"
       weight="33.333333"
       steps="2"
       helper_size="0"
       apply_no_weight="true"
       apply_with_weight="true"
       only_selected="false" />
    <inkscape:path-effect
       effect="bspline"
       id="path-effect1133"
       is_visible="true"
       weight="33.333333"
       steps="2"
       helper_size="0"
       apply_no_weight="true"
       apply_with_weight="true"
       only_selected="false" />
    <inkscape:path-effect
       effect="bspline"
       id="path-effect1129"
       is_visible="true"
       weight="33.333333"
       steps="2"
       helper_size="0"
       apply_no_weight="true"
       apply_with_weight="true"
       only_selected="false" />
    <inkscape:path-effect
       effect="bspline"
       id="path-effect1125"
       is_visible="true"
       weight="33.333333"
       steps="2"
       helper_size="0"
       apply_no_weight="true"
       apply_with_weight="true"
       only_selected="false" />
    <inkscape:path-effect
       effect="bspline"
       id="path-effect1121"
       is_visible="true"
       weight="33.333333"
       steps="2"
       helper_size="0"
       apply_no_weight="true"
       apply_with_weight="true"
       only_selected="false" />
    <inkscape:path-effect
       effect="bspline"
       id="path-effect1117"
       is_visible="true"
       weight="33.333333"
       steps="2"
       helper_size="0"
       apply_no_weight="true"
       apply_with_weight="true"
       only_selected="false" />
    <inkscape:path-effect
       effect="bspline"
       id="path-effect1113"
       is_visible="true"
       weight="33.333333"
       steps="2"
       helper_size="0"
       apply_no_weight="true"
       apply_with_weight="true"
       only_selected="false" />
    <inkscape:path-effect
       effect="bspline"
       id="path-effect1107"
       is_visible="true"
       weight="33.333333"
       steps="2"
       helper_size="0"
       apply_no_weight="true"
       apply_with_weight="true"
       only_selected="false" />
    <inkscape:path-effect
       effect="bspline"
       id="path-effect1103"
       is_visible="true"
       weight="33.333333"
       steps="2"
       helper_size="0"
       apply_no_weight="true"
       apply_with_weight="true"
       only_selected="false" />
    <inkscape:path-effect
       effect="bspline"
       id="path-effect1095"
       is_visible="true"
       weight="33.333333"
       steps="2"
       helper_size="0"
       apply_no_weight="true"
       apply_with_weight="true"
       only_selected="false" />
    <inkscape:path-effect
       effect="bspline"
       id="path-effect1041-43"
       is_visible="true"
       weight="33.333333"
       steps="2"
       helper_size="0"
       apply_no_weight="true"
       apply_with_weight="true"
       only_selected="false" />
    <inkscape:path-effect
       effect="bspline"
       id="path-effect1041-40"
       is_visible="true"
       weight="33.333333"
       steps="2"
       helper_size="0"
       apply_no_weight="true"
       apply_with_weight="true"
       only_selected="false" />
    <inkscape:path-effect
       effect="bspline"
       id="path-effect1041-4"
       is_visible="true"
       weight="33.333333"
       steps="2"
       helper_size="0"
       apply_no_weight="true"
       apply_with_weight="true"
       only_selected="false" />
    <inkscape:path-effect
       effect="bspline"
       id="path-effect1041-9"
       is_visible="true"
       weight="33.333333"
       steps="2"
       helper_size="0"
       apply_no_weight="true"
       apply_with_weight="true"
       only_selected="false" />
    <inkscape:path-effect
       effect="bspline"
       id="path-effect1041-6"
       is_visible="true"
       weight="33.333333"
       steps="2"
       helper_size="0"
       apply_no_weight="true"
       apply_with_weight="true"
       only_selected="false" />
    <inkscape:path-effect
       effect="bspline"
       id="path-effect1041"
       is_visible="true"
       weight="33.333333"
       steps="2"
       helper_size="0"
       apply_no_weight="true"
       apply_with_weight="true"
       only_selected="false" />
    <inkscape:path-effect
       effect="skeletal"
       id="path-effect4886"
       is_visible="true"
       pattern="m 308.5001,3.7924249 h 90"
       copytype="repeated_stretched"
       prop_scale="5"
       scale_y_rel="true"
       spacing="50"
       normal_offset="0"
       tang_offset="0"
       prop_units="false"
       vertical_pattern="false"
       fuse_tolerance="0" />
    <inkscape:path-effect
       effect="bspline"
       id="path-effect1161-3"
       is_visible="true"
       weight="33.333333"
       steps="2"
       helper_size="0"
       apply_no_weight="true"
       apply_with_weight="true"
       only_selected="false" />
    <inkscape:path-effect
       effect="bspline"
       id="path-effect1157-7"
       is_visible="true"
       weight="33.333333"
       steps="2"
       helper_size="0"
       apply_no_weight="true"
       apply_with_weight="true"
       only_selected="false" />
    <inkscape:path-effect
       effect="bspline"
       id="path-effect1153-7"
       is_visible="true"
       weight="33.333333"
       steps="2"
       helper_size="0"
       apply_no_weight="true"
       apply_with_weight="true"
       only_selected="false" />
    <inkscape:path-effect
       effect="bspline"
       id="path-effect1149-9"
       is_visible="true"
       weight="33.333333"
       steps="2"
       helper_size="0"
       apply_no_weight="true"
       apply_with_weight="true"
       only_selected="false" />
    <inkscape:path-effect
       effect="bspline"
       id="path-effect1145-8"
       is_visible="true"
       weight="33.333333"
       steps="2"
       helper_size="0"
       apply_no_weight="true"
       apply_with_weight="true"
       only_selected="false" />
    <inkscape:path-effect
       effect="bspline"
       id="path-effect1141-5"
       is_visible="true"
       weight="33.333333"
       steps="2"
       helper_size="0"
       apply_no_weight="true"
       apply_with_weight="true"
       only_selected="false" />
    <inkscape:path-effect
       effect="bspline"
       id="path-effect1137-0"
       is_visible="true"
       weight="33.333333"
       steps="2"
       helper_size="0"
       apply_no_weight="true"
       apply_with_weight="true"
       only_selected="false" />
    <inkscape:path-effect
       effect="bspline"
       id="path-effect1133-8"
       is_visible="true"
       weight="33.333333"
       steps="2"
       helper_size="0"
       apply_no_weight="true"
       apply_with_weight="true"
       only_selected="false" />
    <inkscape:path-effect
       effect="bspline"
       id="path-effect1129-1"
       is_visible="true"
       weight="33.333333"
       steps="2"
       helper_size="0"
       apply_no_weight="true"
       apply_with_weight="true"
       only_selected="false" />
    <inkscape:path-effect
       effect="bspline"
       id="path-effect1125-0"
       is_visible="true"
       weight="33.333333"
       steps="2"
       helper_size="0"
       apply_no_weight="true"
       apply_with_weight="true"
       only_selected="false" />
    <inkscape:path-effect
       effect="bspline"
       id="path-effect1121-5"
       is_visible="true"
       weight="33.333333"
       steps="2"
       helper_size="0"
       apply_no_weight="true"
       apply_with_weight="true"
       only_selected="false" />
    <inkscape:path-effect
       effect="bspline"
       id="path-effect1117-1"
       is_visible="true"
       weight="33.333333"
       steps="2"
       helper_size="0"
       apply_no_weight="true"
       apply_with_weight="true"
       only_selected="false" />
    <inkscape:path-effect
       effect="bspline"
       id="path-effect1113-2"
       is_visible="true"
       weight="33.333333"
       steps="2"
       helper_size="0"
       apply_no_weight="true"
       apply_with_weight="true"
       only_selected="false" />
    <inkscape:path-effect
       effect="bspline"
       id="path-effect1107-3"
       is_visible="true"
       weight="33.333333"
       steps="2"
       helper_size="0"
       apply_no_weight="true"
       apply_with_weight="true"
       only_selected="false" />
    <inkscape:path-effect
       effect="bspline"
       id="path-effect1103-3"
       is_visible="true"
       weight="33.333333"
       steps="2"
       helper_size="0"
       apply_no_weight="true"
       apply_with_weight="true"
       only_selected="false" />
    <inkscape:path-effect
       effect="bspline"
       id="path-effect1095-1"
       is_visible="true"
       weight="33.333333"
       steps="2"
       helper_size="0"
       apply_no_weight="true"
       apply_with_weight="true"
       only_selected="false" />
    <inkscape:path-effect
       effect="skeletal"
       id="path-effect4886-0"
       is_visible="true"
       pattern="m 619.31141,318.94152 h 90"
       copytype="repeated_stretched"
       prop_scale="5"
       scale_y_rel="true"
       spacing="50"
       normal_offset="0"
       tang_offset="0"
       prop_units="false"
       vertical_pattern="false"
       fuse_tolerance="0" />
  </defs>
  <sodipodi:namedview
     pagecolor="#ffffff"
     bordercolor="#666666"
     borderopacity="1"
     objecttolerance="10"
     gridtolerance="10"
     guidetolerance="10"
     inkscape:pageopacity="0"
     inkscape:pageshadow="2"
     inkscape:window-width="1920"
     inkscape:window-height="1001"
     id="namedview17"
     showgrid="false"
     inkscape:measure-start="1176.79,15.2899"
     inkscape:measure-end="1176.79,224.185"
     inkscape:document-units="mm"
     inkscape:zoom="0.93198788"
     inkscape:cx="-52.003689"
     inkscape:cy="96.990499"
     inkscape:window-x="-9"
     inkscape:window-y="-9"
     inkscape:window-maximized="1"
     inkscape:current-layer="svg15" />
  <path
     inkscape:connector-curvature="0"
     style="font-size:medium;vector-effect:non-scaling-stroke;fill:none;fill-rule:evenodd;stroke:#ff0000;stroke-width:0.112;stroke-linecap:round;stroke-miterlimit:4;stroke-dasharray:none"
     id="front_outsideCutPath"
     d="m 0,321 v 21 h 4 v 16 H 0 v 16 5 h 14 v -4 h 16 v 4 h 16 v -4 h 16 v 4 h 16 v -4 h 16 v 4 h 14 v -21 h -4 v -16 h 4 v -16 -5 H 94 v 4 H 78 v -4 H 62 v 4 H 46 v -4 H 30 v 4 H 14 v -4 z" />
  <path
     inkscape:connector-curvature="0"
     style="font-size:medium;vector-effect:non-scaling-stroke;fill:#777777;fill-rule:evenodd;stroke:#777777;stroke-width:0.112;stroke-linecap:round;stroke-miterlimit:4;stroke-dasharray:none"
     id="front_labelLayer"
     d="m 62.454,354.381 h -0.941 v -4.016 q 0,-0.484 -0.14,-0.811 a 1.118,1.118 0 0 0 -0.205,-0.322 q -0.28,-0.302 -0.816,-0.36 a 2.493,2.493 0 0 0 -0.266,-0.013 2.846,2.846 0 0 0 -0.532,0.046 q -0.297,0.057 -0.525,0.182 a 1.326,1.326 0 0 0 -0.37,0.298 1.537,1.537 0 0 0 -0.267,0.467 q -0.186,0.496 -0.186,1.272 v 3.257 h -0.941 v -6.208 h 0.765 l 0.153,0.85 h 0.045 a 1.904,1.904 0 0 1 0.746,-0.679 2.289,2.289 0 0 1 0.064,-0.032 2.546,2.546 0 0 1 0.906,-0.242 3.079,3.079 0 0 1 0.255,-0.01 q 0.744,0 1.244,0.238 a 1.69,1.69 0 0 1 0.444,0.303 q 0.431,0.411 0.534,1.198 a 4.103,4.103 0 0 1 0.033,0.532 z m -18.063,-6.208 v 0.731 h -1.58 v 5.477 H 41.87 v -5.477 h -1.11 v -0.425 l 1.11,-0.34 v -0.345 q 0,-1.976 1.49,-2.246 a 2.858,2.858 0 0 1 0.51,-0.043 3.028,3.028 0 0 1 0.428,0.033 q 0.209,0.03 0.441,0.087 a 6.086,6.086 0 0 1 0.286,0.079 l -0.243,0.753 q -0.387,-0.125 -0.693,-0.161 a 2.022,2.022 0 0 0 -0.236,-0.015 1.268,1.268 0 0 0 -0.306,0.035 0.814,0.814 0 0 0 -0.481,0.319 1.088,1.088 0 0 0 -0.144,0.29 q -0.111,0.33 -0.111,0.846 v 0.402 z m 22.849,5.432 v 0.719 a 0.925,0.925 0 0 1 -0.11,0.044 q -0.136,0.045 -0.341,0.078 a 4.075,4.075 0 0 1 -0.265,0.035 q -0.126,0.012 -0.238,0.013 a 2.409,2.409 0 0 1 -0.032,0 q -1.436,0 -1.727,-1.207 a 2.955,2.955 0 0 1 -0.074,-0.69 v -3.693 h -0.889 v -0.453 l 0.889,-0.391 0.397,-1.325 h 0.543 v 1.438 h 1.801 v 0.731 h -1.801 v 3.653 a 1.893,1.893 0 0 0 0.028,0.333 q 0.032,0.182 0.104,0.327 a 0.912,0.912 0 0 0 0.134,0.201 0.873,0.873 0 0 0 0.537,0.286 1.257,1.257 0 0 0 0.194,0.014 3.088,3.088 0 0 0 0.452,-0.032 2.85,2.85 0 0 0 0.03,-0.004 q 0.221,-0.036 0.355,-0.073 a 1.412,1.412 0 0 0 0.013,-0.004 z M 49.098,348.128 48.967,349 a 4.144,4.144 0 0 0 -0.298,-0.055 q -0.148,-0.021 -0.28,-0.027 a 2.205,2.205 0 0 0 -0.101,-0.003 1.629,1.629 0 0 0 -1.204,0.52 2.229,2.229 0 0 0 -0.085,0.092 2.147,2.147 0 0 0 -0.518,1.206 2.854,2.854 0 0 0 -0.017,0.318 v 3.33 h -0.94 v -6.208 H 46.3 l 0.107,1.15 h 0.046 a 3.175,3.175 0 0 1 0.355,-0.507 2.425,2.425 0 0 1 0.477,-0.428 1.874,1.874 0 0 1 1.071,-0.328 4.317,4.317 0 0 1 0.386,0.016 3.15,3.15 0 0 1 0.356,0.052 z m 6.519,3.143 q 0,1.518 -0.765,2.371 a 2.507,2.507 0 0 1 -1.475,0.799 3.651,3.651 0 0 1 -0.637,0.053 3.019,3.019 0 0 1 -0.878,-0.123 2.618,2.618 0 0 1 -0.601,-0.268 2.545,2.545 0 0 1 -0.928,-0.987 3.091,3.091 0 0 1 -0.068,-0.134 3.478,3.478 0 0 1 -0.293,-0.949 4.704,4.704 0 0 1 -0.059,-0.762 q 0,-1.155 0.44,-1.922 a 2.598,2.598 0 0 1 0.319,-0.442 q 0.759,-0.847 2.107,-0.847 a 3.159,3.159 0 0 1 0.928,0.13 2.461,2.461 0 0 1 1.143,0.737 q 0.767,0.866 0.767,2.344 z m -4.729,0 a 4.761,4.761 0 0 0 0.045,0.681 q 0.05,0.345 0.155,0.625 a 1.973,1.973 0 0 0 0.275,0.507 1.541,1.541 0 0 0 1.004,0.591 2.335,2.335 0 0 0 0.395,0.032 2.184,2.184 0 0 0 0.577,-0.072 1.52,1.52 0 0 0 0.825,-0.548 2.018,2.018 0 0 0 0.315,-0.612 q 0.092,-0.283 0.132,-0.629 a 4.953,4.953 0 0 0 0.032,-0.575 q 0,-1.183 -0.479,-1.798 a 1.547,1.547 0 0 0 -0.961,-0.574 2.371,2.371 0 0 0 -0.452,-0.04 2.238,2.238 0 0 0 -0.557,0.065 1.498,1.498 0 0 0 -0.836,0.541 q -0.47,0.606 -0.47,1.806 z" />
  <path
     inkscape:connector-curvature="0"
     style="font-size:medium;vector-effect:non-scaling-stroke;fill:none;fill-rule:evenodd;stroke:#ff0000;stroke-width:0.112;stroke-linecap:round;stroke-miterlimit:4;stroke-dasharray:none"
     id="left_outsideCutPath"
     d="m 115,321 v 21 h -4 v 16 h 4 v 16 5 h 18 v -4 h 16 v 4 h 16 v -4 h 16 v 4 h 16 v -4 h 16 v 4 h 16 v -4 h 16 v 4 h 16 v -4 h 16 v 4 h 16 2 v -21 h 4 v -16 h -4 v -16 -5 h -18 v 4 h -16 v -4 h -16 v 4 h -16 v -4 h -16 v 4 h -16 v -4 h -16 v 4 h -16 v -4 h -16 v 4 h -16 v -4 h -16 z" />
  <path
     inkscape:connector-curvature="0"
     style="font-size:medium;vector-effect:non-scaling-stroke;fill:#777777;fill-rule:evenodd;stroke:#777777;stroke-width:0.112;stroke-linecap:round;stroke-miterlimit:4;stroke-dasharray:none"
     id="left_labelLayer"
     d="m 209.126,348.173 v 0.731 h -1.58 v 5.477 h -0.94 v -5.477 h -1.11 v -0.425 l 1.11,-0.34 v -0.345 q 0,-1.976 1.49,-2.246 a 2.858,2.858 0 0 1 0.509,-0.043 3.028,3.028 0 0 1 0.429,0.033 q 0.208,0.03 0.44,0.087 a 6.086,6.086 0 0 1 0.287,0.079 l -0.244,0.753 q -0.386,-0.125 -0.692,-0.161 a 2.022,2.022 0 0 0 -0.237,-0.015 1.268,1.268 0 0 0 -0.305,0.035 0.814,0.814 0 0 0 -0.482,0.319 1.088,1.088 0 0 0 -0.144,0.29 q -0.111,0.33 -0.111,0.846 v 0.402 z m -4.401,2.679 v 0.595 h -4.276 a 3.774,3.774 0 0 0 0.066,0.632 q 0.126,0.638 0.486,1.028 a 1.708,1.708 0 0 0 0.897,0.505 2.589,2.589 0 0 0 0.579,0.061 4.966,4.966 0 0 0 1.86,-0.368 5.691,5.691 0 0 0 0.122,-0.051 v 0.838 a 5.645,5.645 0 0 1 -0.514,0.194 4.317,4.317 0 0 1 -0.429,0.115 q -0.346,0.073 -0.802,0.089 a 7.66,7.66 0 0 1 -0.271,0.004 3.654,3.654 0 0 1 -0.915,-0.108 2.587,2.587 0 0 1 -1.257,-0.73 2.767,2.767 0 0 1 -0.662,-1.216 q -0.115,-0.43 -0.132,-0.942 a 5.37,5.37 0 0 1 -0.002,-0.17 q 0,-1.223 0.491,-2.037 a 2.784,2.784 0 0 1 0.248,-0.347 2.409,2.409 0 0 1 1.756,-0.876 3.324,3.324 0 0 1 0.229,-0.008 2.865,2.865 0 0 1 0.807,0.108 2.18,2.18 0 0 1 1.04,0.659 2.629,2.629 0 0 1 0.595,1.202 3.827,3.827 0 0 1 0.084,0.823 z m 8.389,2.753 v 0.719 a 0.925,0.925 0 0 1 -0.11,0.044 q -0.136,0.045 -0.341,0.078 a 4.075,4.075 0 0 1 -0.265,0.035 q -0.126,0.012 -0.238,0.013 a 2.409,2.409 0 0 1 -0.032,0 q -1.436,0 -1.727,-1.207 a 2.955,2.955 0 0 1 -0.074,-0.69 v -3.693 h -0.889 v -0.453 l 0.889,-0.391 0.397,-1.325 h 0.543 v 1.438 h 1.801 v 0.731 h -1.801 v 3.653 a 1.893,1.893 0 0 0 0.028,0.333 q 0.032,0.182 0.104,0.327 a 0.912,0.912 0 0 0 0.134,0.201 0.873,0.873 0 0 0 0.537,0.286 1.257,1.257 0 0 0 0.194,0.014 3.088,3.088 0 0 0 0.453,-0.032 2.85,2.85 0 0 0 0.029,-0.004 q 0.221,-0.036 0.355,-0.073 a 1.412,1.412 0 0 0 0.013,-0.004 z m -15.288,-8.037 v 8.813 h -0.94 v -8.813 z m 2.646,5.114 h 3.245 q 0,-0.601 -0.181,-1.012 a 1.455,1.455 0 0 0 -0.215,-0.35 1.288,1.288 0 0 0 -0.776,-0.441 1.932,1.932 0 0 0 -0.357,-0.032 1.853,1.853 0 0 0 -0.536,0.074 1.432,1.432 0 0 0 -0.656,0.413 1.857,1.857 0 0 0 -0.37,0.623 q -0.093,0.257 -0.136,0.565 a 3.552,3.552 0 0 0 -0.018,0.16 z" />
  <path
     inkscape:connector-curvature="0"
     style="font-size:medium;vector-effect:non-scaling-stroke;fill:none;fill-rule:evenodd;stroke:#ff0000;stroke-width:0.112;stroke-linecap:round;stroke-miterlimit:4;stroke-dasharray:none"
     id="top_outsideCutPath"
     d="m 306,195 v 18 h -4 v 16 h 4 v 16 h -4 v 16 h 4 v 16 h -4 v 16 h 4 v 16 h -4 v 16 h 4 v 16 h -4 v 16 h 4 v 16 2 h 10 v 4 h 16 v -4 h 16 v 4 h 16 v -4 h 16 v 4 h 16 v -4 h 10 v -18 h 4 v -16 h -4 v -16 h 4 v -16 h -4 v -16 h 4 v -16 h -4 v -16 h 4 v -16 h -4 v -16 h 4 v -16 h -4 v -16 -2 h -10 v -4 h -16 v 4 h -16 v -4 h -16 v 4 h -16 v -4 h -16 v 4 z" />
  <path
     inkscape:connector-curvature="0"
     style="font-size:medium;vector-effect:non-scaling-stroke;fill:#777777;fill-rule:evenodd;stroke:#777777;stroke-width:0.112;stroke-linecap:round;stroke-miterlimit:4;stroke-dasharray:none"
     id="top_labelLayer"
     d="m 363.762,288.038 h -0.126 a 16.569,16.569 0 0 1 0.109,1.224 13.884,13.884 0 0 1 0.017,0.695 v 4.757 h -1.75 v -16.749 h 1.423 l 0.243,1.582 h 0.084 a 4.713,4.713 0 0 1 0.682,-0.774 3.644,3.644 0 0 1 0.89,-0.597 4.385,4.385 0 0 1 1.257,-0.367 5.675,5.675 0 0 1 0.8,-0.055 q 2.299,0 3.549,1.572 1.249,1.571 1.249,4.408 a 10.265,10.265 0 0 1 -0.136,1.728 q -0.279,1.636 -1.135,2.697 a 4.145,4.145 0 0 1 -2.945,1.549 5.938,5.938 0 0 1 -0.582,0.028 q -1.129,0 -2.062,-0.417 a 3.878,3.878 0 0 1 -1.567,-1.281 z m -17.107,0.042 v 1.339 a 1.722,1.722 0 0 1 -0.204,0.081 q -0.218,0.072 -0.53,0.128 a 6.548,6.548 0 0 1 -0.104,0.018 7.588,7.588 0 0 1 -0.495,0.064 q -0.233,0.022 -0.442,0.025 a 4.489,4.489 0 0 1 -0.06,10e-4 q -2.675,0 -3.216,-2.248 a 5.503,5.503 0 0 1 -0.138,-1.286 v -6.876 h -1.656 v -0.844 l 1.656,-0.728 0.739,-2.468 h 1.012 v 2.679 h 3.354 v 1.361 h -3.354 v 6.803 q 0,0.733 0.245,1.227 a 1.698,1.698 0 0 0 0.251,0.376 1.626,1.626 0 0 0 1,0.532 2.34,2.34 0 0 0 0.36,0.027 5.75,5.75 0 0 0 0.843,-0.061 5.296,5.296 0 0 0 0.054,-0.008 q 0.413,-0.065 0.662,-0.136 a 2.631,2.631 0 0 0 0.023,-0.006 z m 12.127,-2.586 a 9.043,9.043 0 0 0 0.16,-1.76 q 0,-1.123 -0.238,-2.057 a 5.452,5.452 0 0 0 -1.191,-2.309 4.583,4.583 0 0 0 -2.127,-1.372 5.883,5.883 0 0 0 -1.727,-0.242 6.8,6.8 0 0 0 -1.222,0.105 4.631,4.631 0 0 0 -2.702,1.472 4.837,4.837 0 0 0 -0.594,0.824 q -0.819,1.427 -0.819,3.579 0,1.825 0.654,3.186 0.654,1.36 1.856,2.088 1.202,0.728 2.753,0.728 2.51,0 3.934,-1.588 a 4.884,4.884 0 0 0 0.581,-0.799 q 0.475,-0.811 0.682,-1.855 z m -8.646,-1.76 a 8.866,8.866 0 0 0 0.084,1.267 q 0.093,0.643 0.289,1.164 a 3.673,3.673 0 0 0 0.513,0.944 2.87,2.87 0 0 0 1.869,1.101 4.348,4.348 0 0 0 0.736,0.06 4.067,4.067 0 0 0 1.073,-0.134 2.83,2.83 0 0 0 1.537,-1.021 q 0.663,-0.859 0.833,-2.31 a 9.222,9.222 0 0 0 0.058,-1.071 8.736,8.736 0 0 0 -0.082,-1.244 q -0.092,-0.634 -0.284,-1.147 a 3.605,3.605 0 0 0 -0.525,-0.957 2.88,2.88 0 0 0 -1.79,-1.069 4.416,4.416 0 0 0 -0.841,-0.076 4.167,4.167 0 0 0 -1.038,0.122 2.788,2.788 0 0 0 -1.557,1.007 3.62,3.62 0 0 0 -0.562,1.087 q -0.167,0.5 -0.244,1.111 a 9.252,9.252 0 0 0 -0.069,1.166 z m 13.626,-0.39 v 0.39 a 11.576,11.576 0 0 0 0.058,1.197 q 0.126,1.207 0.528,1.942 a 2.641,2.641 0 0 0 0.227,0.347 q 0.812,1.05 2.605,1.05 a 2.95,2.95 0 0 0 1.147,-0.216 q 0.661,-0.276 1.133,-0.906 a 3.489,3.489 0 0 0 0.066,-0.091 q 0.849,-1.213 0.849,-3.344 a 8.835,8.835 0 0 0 -0.083,-1.253 q -0.091,-0.635 -0.282,-1.151 a 3.712,3.712 0 0 0 -0.484,-0.913 2.723,2.723 0 0 0 -1.992,-1.134 3.767,3.767 0 0 0 -0.397,-0.021 5.045,5.045 0 0 0 -0.942,0.082 q -0.525,0.1 -0.928,0.322 a 2.314,2.314 0 0 0 -0.692,0.577 q -0.791,0.981 -0.813,3.122 z" />
  <path
     inkscape:connector-curvature="0"
     style="font-size:medium;vector-effect:non-scaling-stroke;fill:none;fill-rule:evenodd;stroke:#ff0000;stroke-width:0.112;stroke-linecap:round;stroke-miterlimit:4;stroke-dasharray:none"
     id="back_outsideCutPath"
     d="m 0,260 v 21 h 4 v 16 H 0 v 16 5 h 14 v -4 h 16 v 4 h 16 v -4 h 16 v 4 h 16 v -4 h 16 v 4 h 14 v -21 h -4 v -16 h 4 v -16 -5 H 94 v 4 H 78 v -4 H 62 v 4 H 46 v -4 H 30 v 4 H 14 v -4 z" />
  <path
     inkscape:connector-curvature="0"
     style="font-size:medium;vector-effect:non-scaling-stroke;fill:#777777;fill-rule:evenodd;stroke:#777777;stroke-width:0.112;stroke-linecap:round;stroke-miterlimit:4;stroke-dasharray:none"
     id="back_labelLayer"
     d="m 61.941,290.172 h 0.045 a 5.566,5.566 0 0 1 0.138,-0.186 q 0.158,-0.206 0.385,-0.469 a 20.202,20.202 0 0 1 0.219,-0.251 l 2.005,-2.124 h 1.116 l -2.515,2.645 2.691,3.563 h -1.139 l -2.192,-2.934 -0.708,0.612 v 2.322 h -0.929 v -8.813 h 0.929 v 4.673 q 0,0.305 -0.043,0.939 a 39.499,39.499 0 0 1 -0.002,0.023 z m -19.026,2.379 h -0.068 l -0.198,0.799 h -0.674 v -8.813 h 0.94 v 2.141 q 0,0.696 -0.042,1.254 a 11.704,11.704 0 0 1 -0.003,0.037 h 0.045 a 2.138,2.138 0 0 1 1.561,-0.906 3.211,3.211 0 0 1 0.388,-0.023 2.874,2.874 0 0 1 0.809,0.108 2.151,2.151 0 0 1 1.091,0.728 2.771,2.771 0 0 1 0.486,0.935 q 0.119,0.386 0.164,0.848 a 6.035,6.035 0 0 1 0.027,0.581 q 0,1.079 -0.34,1.819 a 2.643,2.643 0 0 1 -0.343,0.557 2.226,2.226 0 0 1 -1.582,0.832 3.189,3.189 0 0 1 -0.312,0.015 2.852,2.852 0 0 1 -0.717,-0.087 2.481,2.481 0 0 1 -0.39,-0.137 2.082,2.082 0 0 1 -0.842,-0.688 z m 10.683,0.799 h -0.697 l -0.187,-0.884 h -0.045 a 3.898,3.898 0 0 1 -0.315,0.353 q -0.17,0.167 -0.339,0.283 a 1.732,1.732 0 0 1 -0.272,0.154 q -0.462,0.207 -1.153,0.207 a 2.885,2.885 0 0 1 -0.587,-0.056 q -0.359,-0.075 -0.634,-0.248 a 1.619,1.619 0 0 1 -0.226,-0.172 1.545,1.545 0 0 1 -0.466,-0.815 2.366,2.366 0 0 1 -0.058,-0.538 q 0,-1.881 3.008,-1.971 l 1.053,-0.034 v -0.386 a 2.701,2.701 0 0 0 -0.026,-0.39 q -0.029,-0.2 -0.091,-0.36 a 1.049,1.049 0 0 0 -0.197,-0.329 q -0.251,-0.277 -0.741,-0.334 a 2.323,2.323 0 0 0 -0.264,-0.014 3.061,3.061 0 0 0 -0.705,0.088 q -0.323,0.077 -0.675,0.22 a 6.297,6.297 0 0 0 -0.376,0.168 l -0.289,-0.719 a 4.335,4.335 0 0 1 0.837,-0.344 4.934,4.934 0 0 1 0.168,-0.047 q 0.547,-0.142 1.096,-0.142 a 3.971,3.971 0 0 1 0.605,0.043 q 0.311,0.048 0.559,0.15 a 1.6,1.6 0 0 1 0.482,0.3 1.489,1.489 0 0 1 0.384,0.593 q 0.151,0.409 0.151,0.987 z m 6.077,-5.998 -0.288,0.798 a 4.183,4.183 0 0 0 -0.454,-0.151 4.996,4.996 0 0 0 -0.226,-0.055 3.884,3.884 0 0 0 -0.296,-0.055 q -0.144,-0.021 -0.272,-0.026 a 2.084,2.084 0 0 0 -0.084,-0.002 q -1.68,0 -1.868,1.904 a 5.195,5.195 0 0 0 -0.023,0.509 q 0,0.751 0.198,1.273 a 1.95,1.95 0 0 0 0.263,0.483 1.493,1.493 0 0 0 0.968,0.578 2.275,2.275 0 0 0 0.4,0.034 3.936,3.936 0 0 0 1.086,-0.158 4.86,4.86 0 0 0 0.506,-0.176 v 0.832 a 2.674,2.674 0 0 1 -0.655,0.232 q -0.302,0.067 -0.653,0.085 a 5.156,5.156 0 0 1 -0.261,0.006 3.514,3.514 0 0 1 -0.855,-0.098 2.383,2.383 0 0 1 -1.232,-0.732 q -0.639,-0.716 -0.726,-1.947 a 5.685,5.685 0 0 1 -0.014,-0.4 5.188,5.188 0 0 1 0.081,-0.944 q 0.165,-0.892 0.67,-1.464 a 2.435,2.435 0 0 1 1.333,-0.766 3.691,3.691 0 0 1 0.805,-0.083 4.243,4.243 0 0 1 0.895,0.096 q 0.443,0.095 0.697,0.224 a 1.384,1.384 0 0 1 0.005,0.003 z m -14.947,0.475 a 2.642,2.642 0 0 0 -0.512,0.047 q -0.574,0.113 -0.876,0.506 -0.373,0.485 -0.418,1.554 a 7.244,7.244 0 0 0 -0.007,0.306 q 0,1.112 0.315,1.686 a 1.418,1.418 0 0 0 0.122,0.186 q 0.391,0.506 1.205,0.558 a 3.023,3.023 0 0 0 0.194,0.006 1.874,1.874 0 0 0 0.532,-0.071 1.352,1.352 0 0 0 0.759,-0.561 q 0.425,-0.631 0.425,-1.815 a 5.555,5.555 0 0 0 -0.034,-0.633 q -0.079,-0.692 -0.348,-1.11 a 1.56,1.56 0 0 0 -0.043,-0.064 1.371,1.371 0 0 0 -0.873,-0.552 2.175,2.175 0 0 0 -0.441,-0.043 z m 7.93,3.031 v -0.561 l -0.941,0.04 q -0.936,0.033 -1.436,0.253 a 1.444,1.444 0 0 0 -0.181,0.095 1.003,1.003 0 0 0 -0.478,0.728 1.485,1.485 0 0 0 -0.017,0.232 1.344,1.344 0 0 0 0.033,0.308 q 0.056,0.237 0.205,0.4 a 0.837,0.837 0 0 0 0.07,0.068 q 0.267,0.23 0.717,0.261 a 2.115,2.115 0 0 0 0.147,0.005 2.589,2.589 0 0 0 0.559,-0.057 q 0.491,-0.108 0.82,-0.424 0.499,-0.479 0.502,-1.339 a 2.971,2.971 0 0 0 0,-0.009 z" />
  <path
     inkscape:connector-curvature="0"
     style="font-size:medium;vector-effect:non-scaling-stroke;fill:none;fill-rule:evenodd;stroke:#ff0000;stroke-width:0.112;stroke-linecap:round;stroke-miterlimit:4;stroke-dasharray:none"
     id="right_outsideCutPath"
     d="m 115,260 v 21 h -4 v 16 h 4 v 16 5 h 18 v -4 h 16 v 4 h 16 v -4 h 16 v 4 h 16 v -4 h 16 v 4 h 16 v -4 h 16 v 4 h 16 v -4 h 16 v 4 h 16 2 v -21 h 4 v -16 h -4 v -16 -5 h -18 v 4 h -16 v -4 h -16 v 4 h -16 v -4 h -16 v 4 h -16 v -4 h -16 v 4 h -16 v -4 h -16 v 4 h -16 v -4 h -16 z" />
  <path
     inkscape:connector-curvature="0"
     style="font-size:medium;vector-effect:non-scaling-stroke;fill:#777777;fill-rule:evenodd;stroke:#777777;stroke-width:0.112;stroke-linecap:round;stroke-miterlimit:4;stroke-dasharray:none"
     id="right_labelLayer"
     d="m 212.213,292.013 h -0.94 v -4.016 q 0,-0.483 -0.14,-0.811 a 1.118,1.118 0 0 0 -0.206,-0.321 q -0.279,-0.303 -0.815,-0.361 a 2.493,2.493 0 0 0 -0.266,-0.013 2.845,2.845 0 0 0 -0.532,0.046 q -0.581,0.111 -0.899,0.486 -0.45,0.533 -0.45,1.745 v 3.245 h -0.94 V 283.2 h 0.94 v 2.668 a 8.458,8.458 0 0 1 -0.006,0.325 q -0.006,0.152 -0.017,0.283 a 3.678,3.678 0 0 1 -0.022,0.19 h 0.056 a 1.879,1.879 0 0 1 0.659,-0.633 2.295,2.295 0 0 1 0.132,-0.072 q 0.512,-0.258 1.169,-0.258 0.749,0 1.252,0.235 a 1.695,1.695 0 0 1 0.456,0.306 q 0.442,0.421 0.541,1.225 a 4.066,4.066 0 0 1 0.028,0.494 z m -8.609,-6.208 h 2.146 v 0.595 l -1.149,0.136 a 1.528,1.528 0 0 1 0.132,0.197 q 0.081,0.141 0.151,0.321 0.124,0.32 0.124,0.723 a 2.155,2.155 0 0 1 -0.098,0.668 1.743,1.743 0 0 1 -0.525,0.787 q -0.561,0.49 -1.499,0.539 a 4.084,4.084 0 0 1 -0.211,0.005 q -0.278,0 -0.521,-0.045 a 1.673,1.673 0 0 0 -0.27,0.174 q -0.139,0.113 -0.22,0.241 a 0.707,0.707 0 0 0 -0.111,0.383 0.487,0.487 0 0 0 0.025,0.16 q 0.045,0.131 0.172,0.209 a 0.522,0.522 0 0 0 0.013,0.008 q 0.169,0.098 0.532,0.117 a 3.577,3.577 0 0 0 0.187,0.005 h 1.099 q 1.008,0 1.549,0.425 a 1.376,1.376 0 0 1 0.511,0.876 2.066,2.066 0 0 1 0.03,0.358 q 0,1.011 -0.795,1.551 a 2.236,2.236 0 0 1 -0.032,0.021 2.82,2.82 0 0 1 -0.727,0.33 q -0.358,0.109 -0.795,0.161 a 7.452,7.452 0 0 1 -0.891,0.05 5.268,5.268 0 0 1 -0.706,-0.044 q -0.359,-0.049 -0.652,-0.151 a 2.185,2.185 0 0 1 -0.519,-0.258 q -0.617,-0.424 -0.657,-1.175 a 1.985,1.985 0 0 1 -0.003,-0.105 q 0,-0.567 0.362,-0.98 a 1.642,1.642 0 0 1 0.564,-0.411 2.327,2.327 0 0 1 0.456,-0.15 0.976,0.976 0 0 1 -0.379,-0.306 1.158,1.158 0 0 1 -0.02,-0.028 0.872,0.872 0 0 1 -0.16,-0.471 1.08,1.08 0 0 1 -0.002,-0.056 1.075,1.075 0 0 1 0.054,-0.346 0.953,0.953 0 0 1 0.127,-0.249 q 0.137,-0.192 0.394,-0.375 a 2.954,2.954 0 0 1 0.178,-0.117 1.648,1.648 0 0 1 -0.716,-0.574 2.043,2.043 0 0 1 -0.068,-0.1 1.944,1.944 0 0 1 -0.298,-0.937 2.372,2.372 0 0 1 -0.005,-0.151 2.717,2.717 0 0 1 0.071,-0.642 1.787,1.787 0 0 1 0.541,-0.93 q 0.528,-0.477 1.437,-0.542 a 4.153,4.153 0 0 1 0.296,-0.01 3.604,3.604 0 0 1 0.477,0.03 2.745,2.745 0 0 1 0.401,0.083 z m 13.395,5.432 v 0.72 A 0.925,0.925 0 0 1 216.89,292 q -0.137,0.045 -0.341,0.078 a 4.075,4.075 0 0 1 -0.266,0.035 q -0.125,0.012 -0.237,0.013 a 2.409,2.409 0 0 1 -0.032,0.001 q -1.437,0 -1.728,-1.208 a 2.955,2.955 0 0 1 -0.073,-0.69 v -3.693 h -0.89 v -0.453 l 0.89,-0.391 0.396,-1.325 h 0.544 v 1.438 h 1.801 v 0.731 h -1.801 v 3.653 a 1.893,1.893 0 0 0 0.027,0.333 q 0.033,0.182 0.104,0.327 a 0.912,0.912 0 0 0 0.135,0.201 0.873,0.873 0 0 0 0.537,0.286 1.257,1.257 0 0 0 0.194,0.015 3.088,3.088 0 0 0 0.452,-0.033 2.85,2.85 0 0 0 0.029,-0.004 q 0.222,-0.035 0.356,-0.073 a 1.412,1.412 0 0 0 0.012,-0.004 z m -20.424,-5.477 -0.131,0.872 a 4.144,4.144 0 0 0 -0.298,-0.055 q -0.148,-0.021 -0.28,-0.027 a 2.205,2.205 0 0 0 -0.101,-0.003 1.629,1.629 0 0 0 -1.204,0.52 2.229,2.229 0 0 0 -0.085,0.092 2.147,2.147 0 0 0 -0.518,1.206 2.854,2.854 0 0 0 -0.017,0.318 v 3.33 h -0.94 v -6.208 h 0.776 l 0.107,1.15 h 0.046 a 3.175,3.175 0 0 1 0.355,-0.507 2.425,2.425 0 0 1 0.477,-0.427 1.874,1.874 0 0 1 1.071,-0.329 4.317,4.317 0 0 1 0.386,0.017 3.15,3.15 0 0 1 0.356,0.051 z m 2.101,0.045 v 6.208 h -0.94 v -6.208 z m 4.605,6.067 h -1.127 a 2.161,2.161 0 0 0 -0.39,0.033 q -0.221,0.04 -0.396,0.131 a 1.101,1.101 0 0 0 -0.211,0.142 0.991,0.991 0 0 0 -0.325,0.561 1.505,1.505 0 0 0 -0.032,0.316 0.944,0.944 0 0 0 0.062,0.351 q 0.09,0.226 0.307,0.378 a 1.103,1.103 0 0 0 0.056,0.036 1.506,1.506 0 0 0 0.37,0.159 q 0.352,0.102 0.848,0.102 a 6.321,6.321 0 0 0 0.617,-0.028 q 0.619,-0.061 1.007,-0.255 a 1.562,1.562 0 0 0 0.129,-0.071 1.372,1.372 0 0 0 0.318,-0.267 1.028,1.028 0 0 0 0.251,-0.693 1.272,1.272 0 0 0 -0.023,-0.253 q -0.062,-0.305 -0.289,-0.447 a 0.892,0.892 0 0 0 -0.211,-0.092 q -0.336,-0.103 -0.961,-0.103 z m -1.971,-4.078 a 1.835,1.835 0 0 0 0.038,0.384 q 0.051,0.239 0.171,0.418 a 1.006,1.006 0 0 0 0.159,0.183 1.215,1.215 0 0 0 0.489,0.266 q 0.186,0.053 0.409,0.065 a 2.421,2.421 0 0 0 0.127,0.003 2.048,2.048 0 0 0 0.537,-0.064 q 0.613,-0.167 0.779,-0.769 a 1.904,1.904 0 0 0 0.061,-0.503 2.022,2.022 0 0 0 -0.069,-0.554 q -0.178,-0.621 -0.809,-0.786 a 2.045,2.045 0 0 0 -0.516,-0.059 1.973,1.973 0 0 0 -0.402,0.038 q -0.246,0.051 -0.434,0.171 a 1.082,1.082 0 0 0 -0.183,0.147 q -0.357,0.357 -0.357,1.06 z m -3.64,-3.843 a 1.042,1.042 0 0 0 -0.013,0.172 1.11,1.11 0 0 0 0.004,0.106 q 0.01,0.095 0.036,0.173 a 0.485,0.485 0 0 0 0.118,0.194 0.528,0.528 0 0 0 0.191,0.122 0.597,0.597 0 0 0 0.206,0.034 0.549,0.549 0 0 0 0.39,-0.156 q 0.165,-0.156 0.165,-0.473 a 1.076,1.076 0 0 0 -0.005,-0.102 q -0.009,-0.092 -0.034,-0.168 a 0.475,0.475 0 0 0 -0.126,-0.2 0.554,0.554 0 0 0 -0.39,-0.153 q -0.238,0 -0.397,0.15 a 0.44,0.44 0 0 0 -0.097,0.138 q -0.033,0.072 -0.048,0.163 z" />
  <path
     inkscape:connector-curvature="0"
     style="font-size:medium;vector-effect:non-scaling-stroke;fill:none;fill-rule:evenodd;stroke:#ff0000;stroke-width:0.112;stroke-linecap:round;stroke-miterlimit:4;stroke-dasharray:none"
     id="bottom_outsideCutPath"
     d="m 306,4 v 18 h -4 v 16 h 4 v 16 h -4 v 16 h 4 v 16 h -4 v 16 h 4 v 16 h -4 v 16 h 4 v 16 h -4 v 16 h 4 v 16 2 h 10 v 4 h 16 v -4 h 16 v 4 h 16 v -4 h 16 v 4 h 16 v -4 h 10 v -18 h 4 v -16 h -4 v -16 h 4 v -16 h -4 v -16 h 4 V 86 h -4 V 70 h 4 V 54 h -4 V 38 h 4 V 22 h -4 V 6 4 H 396 V 0 H 380 V 4 H 364 V 0 H 348 V 4 H 332 V 0 h -16 v 4 z" />
  <rect
     style="opacity:0.9;fill:none;fill-opacity:1;fill-rule:evenodd;stroke:#000000;stroke-width:0.31200001;stroke-miterlimit:4;stroke-dasharray:none;stroke-opacity:1"
     id="rect835"
     width="89.687996"
     height="56.688"
     x="306.28857"
     y="4.2792549" />
  <rect
     style="opacity:0.9;fill:none;fill-opacity:1;fill-rule:evenodd;stroke:#000000;stroke-width:0.31200001;stroke-miterlimit:4;stroke-dasharray:none;stroke-opacity:1"
     id="rect839"
     width="76.688004"
     height="52.688"
     x="306.30453"
     y="68.84095" />
  <text
     xml:space="preserve"
     style="font-style:normal;font-variant:normal;font-weight:normal;font-stretch:normal;font-size:4.93888855px;line-height:1.25;font-family:'Franklin Gothic Heavy';-inkscape-font-specification:'Franklin Gothic Heavy, ';text-align:start;letter-spacing:0px;word-spacing:0px;text-anchor:start;fill:#000000;fill-opacity:1;stroke:none;stroke-width:0.26458332"
     x="347.46716"
     y="95.452217"
     id="text845"><tspan
       sodipodi:role="line"
       id="tspan843"
       x="347.46716"
       y="95.452217"
       style="stroke-width:0.26458332">UNO</tspan></text>
  <text
     xml:space="preserve"
     style="font-style:normal;font-variant:normal;font-weight:normal;font-stretch:normal;font-size:4.93888855px;line-height:1.25;font-family:'Franklin Gothic Heavy';-inkscape-font-specification:'Franklin Gothic Heavy, ';text-align:start;letter-spacing:0px;word-spacing:0px;text-anchor:start;fill:#000000;fill-opacity:1;stroke:none;stroke-width:0.26499999;stroke-miterlimit:4;stroke-dasharray:none;stroke-opacity:1"
     x="352.80304"
     y="33.826508"
     id="text849"><tspan
       sodipodi:role="line"
       id="tspan847"
       x="352.80304"
       y="33.826508"
       style="fill:#000000;fill-opacity:1;stroke:none;stroke-width:0.26499999;stroke-miterlimit:4;stroke-dasharray:none;stroke-opacity:1">RPi</tspan></text>
  <text
     xml:space="preserve"
     style="font-style:normal;font-variant:normal;font-weight:normal;font-stretch:normal;font-size:4.93888855px;line-height:1.25;font-family:'Franklin Gothic Heavy';-inkscape-font-specification:'Franklin Gothic Heavy, ';text-align:start;letter-spacing:0px;word-spacing:0px;text-anchor:start;fill:#000000;fill-opacity:1;stroke:none;stroke-width:0.012;stroke-miterlimit:4;stroke-dasharray:none"
     x="348.22153"
     y="154.38504"
     id="text862"><tspan
       sodipodi:role="line"
       id="tspan860"
       x="348.22153"
       y="154.38504"
       style="stroke-width:0.012;stroke-miterlimit:4;stroke-dasharray:none">Batteries</tspan></text>
  <path
     style="fill:none;stroke:#ff0000;stroke-width:0.012;stroke-linecap:butt;stroke-linejoin:miter;stroke-miterlimit:4;stroke-dasharray:none;stroke-dashoffset:0.06;stroke-opacity:1"
     d="m 313.21409,124.86101 h 90"
     id="path868"
     inkscape:connector-curvature="0"
     inkscape:path-effect="#path-effect4886"
     inkscape:original-d="m 313.21409,124.86101 h 90" />
  <path
     style="fill:none;stroke:#ff0000;stroke-width:0.012;stroke-linecap:butt;stroke-linejoin:miter;stroke-miterlimit:4;stroke-dasharray:none;stroke-dashoffset:0;stroke-opacity:1"
     d="m 313.21409,128.86111 h 90"
     id="path868-2"
     inkscape:connector-curvature="0" />
  <circle
     style="opacity:0.9;fill:none;fill-opacity:1;fill-rule:evenodd;stroke:#ff0000;stroke-width:0.012;stroke-miterlimit:4;stroke-dasharray:none;stroke-dashoffset:10.01574802;stroke-opacity:1"
     id="path895"
     cx="389.34656"
     cy="57.816071"
     r="1.6174999" />
  <circle
     style="opacity:0.9;fill:none;fill-opacity:1;fill-rule:evenodd;stroke:#ff0000;stroke-width:0.012;stroke-miterlimit:4;stroke-dasharray:none;stroke-dashoffset:10.01574802;stroke-opacity:1"
     id="path895-1"
     cx="389.34656"
     cy="8.3160753"
     r="1.6174999" />
  <circle
     style="opacity:0.9;fill:none;fill-opacity:1;fill-rule:evenodd;stroke:#ff0000;stroke-width:0.012;stroke-miterlimit:4;stroke-dasharray:none;stroke-dashoffset:10.01574802;stroke-opacity:1"
     id="path895-5"
     cx="330.65756"
     cy="8.3160753"
     r="1.6174999" />
  <circle
     style="opacity:0.9;fill:none;fill-opacity:1;fill-rule:evenodd;stroke:#ff0000;stroke-width:0.012;stroke-miterlimit:4;stroke-dasharray:none;stroke-dashoffset:10.01574802;stroke-opacity:1"
     id="path895-0"
     cx="330.84656"
     cy="57.816071"
     r="1.6174999" />
  <circle
     style="opacity:0.9;fill:none;fill-opacity:1;fill-rule:evenodd;stroke:#ff0000;stroke-width:0.012;stroke-miterlimit:4;stroke-dasharray:none;stroke-dashoffset:10.01574802;stroke-opacity:1"
     id="path895-0-3"
     cx="328.85608"
     cy="71.185242"
     r="1.8674999" />
  <circle
     style="opacity:0.9;fill:none;fill-opacity:1;fill-rule:evenodd;stroke:#ff0000;stroke-width:0.012;stroke-miterlimit:4;stroke-dasharray:none;stroke-dashoffset:10.01574802;stroke-opacity:1"
     id="path895-0-3-7"
     cx="328.85608"
     cy="119.18518"
     r="1.8674999" />
  <circle
     style="opacity:0.9;fill:none;fill-opacity:1;fill-rule:evenodd;stroke:#ff0000;stroke-width:0.012;stroke-miterlimit:4;stroke-dasharray:none;stroke-dashoffset:10.01574802;stroke-opacity:1"
     id="path895-0-3-7-4"
     cx="380.85608"
     cy="114.6852"
     r="1.8674999" />
  <circle
     style="opacity:0.9;fill:none;fill-opacity:1;fill-rule:evenodd;stroke:#ff0000;stroke-width:0.012;stroke-miterlimit:4;stroke-dasharray:none;stroke-dashoffset:10.01574802;stroke-opacity:1"
     id="path895-0-3-7-4-2"
     cx="380.85608"
     cy="86.685257"
     r="1.8674999" />
  <path
     style="fill:none;stroke:#ff0000;stroke-width:0.012;stroke-linecap:butt;stroke-linejoin:miter;stroke-miterlimit:4;stroke-dasharray:none;stroke-opacity:1"
     d="m 338.05243,19.878952 c 0,0 37.81864,0 37.81864,0"
     id="path1039"
     inkscape:connector-curvature="0"
     inkscape:path-effect="#path-effect1041"
     inkscape:original-d="m 338.05243,19.878952 h 37.81864" />
  <path
     style="fill:none;stroke:#ff0000;stroke-width:0.012;stroke-linecap:butt;stroke-linejoin:miter;stroke-miterlimit:4;stroke-dasharray:none;stroke-opacity:1"
     d="m 343.86554,26.159792 c 0,0 37.81864,0 37.81864,0"
     id="path1039-2"
     inkscape:connector-curvature="0"
     inkscape:path-effect="#path-effect1041-6"
     inkscape:original-d="m 343.86554,26.159792 h 37.81864" />
  <path
     style="fill:none;stroke:#ff0000;stroke-width:0.012;stroke-linecap:butt;stroke-linejoin:miter;stroke-miterlimit:4;stroke-dasharray:none;stroke-opacity:1"
     d="m 334.64474,36.984202 c 0,0 37.81864,0 37.81864,0"
     id="path1039-28"
     inkscape:connector-curvature="0"
     inkscape:path-effect="#path-effect1041-9"
     inkscape:original-d="m 334.64474,36.984202 h 37.81864" />
  <path
     style="fill:none;stroke:#ff0000;stroke-width:0.012;stroke-linecap:butt;stroke-linejoin:miter;stroke-miterlimit:4;stroke-dasharray:none;stroke-opacity:1"
     d="m 344.80098,42.195962 c 0,0 37.81864,0 37.81864,0"
     id="path1039-1"
     inkscape:connector-curvature="0"
     inkscape:path-effect="#path-effect1041-4"
     inkscape:original-d="m 344.80098,42.195962 h 37.81864" />
  <path
     style="fill:none;stroke:#ff0000;stroke-width:0.012;stroke-linecap:butt;stroke-linejoin:miter;stroke-miterlimit:4;stroke-dasharray:none;stroke-opacity:1"
     d="m 330.10116,47.407722 c 0,0 37.81864,0 37.81864,0"
     id="path1039-8"
     inkscape:connector-curvature="0"
     inkscape:path-effect="#path-effect1041-40"
     inkscape:original-d="M 330.10116,47.407722 H 367.9198" />
  <path
     style="fill:none;stroke:#ff0000;stroke-width:0.012;stroke-linecap:butt;stroke-linejoin:miter;stroke-miterlimit:4;stroke-dasharray:none;stroke-opacity:1"
     d="m 327.5621,15.46901 c 0,0 37.81864,0 37.81864,0"
     id="path1039-26"
     inkscape:connector-curvature="0"
     inkscape:path-effect="#path-effect1041-43"
     inkscape:original-d="m 327.5621,15.46901 h 37.81864" />
  <path
     style="fill:none;stroke:#df0000;stroke-width:0.012;stroke-linecap:butt;stroke-linejoin:miter;stroke-miterlimit:4;stroke-dasharray:none;stroke-dashoffset:0;stroke-opacity:1"
     d="m 313.22,124.864 c 0,0 0,4 0,4"
     id="path1093"
     inkscape:connector-curvature="0"
     inkscape:path-effect="#path-effect1095"
     inkscape:original-d="m 313.22,124.864 v 4" />
  <path
     style="fill:none;stroke:#df0000;stroke-width:0.012;stroke-linecap:butt;stroke-linejoin:miter;stroke-miterlimit:4;stroke-dasharray:none;stroke-dashoffset:0;stroke-opacity:1"
     d="m 316.83353,124.8643 c 0,0 0,4 0,4"
     id="path1101"
     inkscape:connector-curvature="0"
     inkscape:path-effect="#path-effect1103"
     inkscape:original-d="m 316.83353,124.8643 v 4" />
  <path
     style="fill:none;stroke:#df0000;stroke-width:0.012;stroke-linecap:butt;stroke-linejoin:miter;stroke-miterlimit:4;stroke-dasharray:none;stroke-opacity:1"
     d="m 323.44845,124.8643 c 0,0 0,4 0,4"
     id="path1105"
     inkscape:connector-curvature="0"
     inkscape:path-effect="#path-effect1107"
     inkscape:original-d="m 323.44845,124.8643 v 4" />
  <path
     style="fill:none;stroke:#df0000;stroke-width:0.012;stroke-linecap:butt;stroke-linejoin:miter;stroke-miterlimit:4;stroke-dasharray:none;stroke-opacity:1"
     d="m 329.49542,124.8643 c 0,0 0,4 0,4"
     id="path1111"
     inkscape:connector-curvature="0"
     inkscape:path-effect="#path-effect1113"
     inkscape:original-d="m 329.49542,124.8643 v 4" />
  <path
     style="fill:none;stroke:#df0000;stroke-width:0.012;stroke-linecap:butt;stroke-linejoin:miter;stroke-miterlimit:4;stroke-dasharray:none;stroke-opacity:1"
     d="m 336.17716,124.8643 c 0,0 0,4 0,4"
     id="path1115"
     inkscape:connector-curvature="0"
     inkscape:path-effect="#path-effect1117"
     inkscape:original-d="m 336.17716,124.8643 v 4" />
  <path
     style="fill:none;stroke:#df0000;stroke-width:0.012;stroke-linecap:butt;stroke-linejoin:miter;stroke-miterlimit:4;stroke-dasharray:none;stroke-opacity:1"
     d="m 342.15732,124.8643 c 0,0 0,4 0,4"
     id="path1119"
     inkscape:connector-curvature="0"
     inkscape:path-effect="#path-effect1121"
     inkscape:original-d="m 342.15732,124.8643 v 4" />
  <path
     style="fill:none;stroke:#df0000;stroke-width:0.012;stroke-linecap:butt;stroke-linejoin:miter;stroke-miterlimit:4;stroke-dasharray:none;stroke-opacity:1"
     d="m 348.90588,124.8643 c 0,0 0,4 0,4"
     id="path1123"
     inkscape:connector-curvature="0"
     inkscape:path-effect="#path-effect1125"
     inkscape:original-d="m 348.90588,124.8643 v 4" />
  <path
     style="fill:none;stroke:#df0000;stroke-width:0.012;stroke-linecap:butt;stroke-linejoin:miter;stroke-miterlimit:4;stroke-dasharray:none;stroke-opacity:1"
     d="m 354.85262,124.8643 c 0,0 0,4 0,4"
     id="path1127"
     inkscape:connector-curvature="0"
     inkscape:path-effect="#path-effect1129"
     inkscape:original-d="m 354.85262,124.8643 v 4" />
  <path
     style="fill:none;stroke:#df0000;stroke-width:0.012;stroke-linecap:butt;stroke-linejoin:miter;stroke-miterlimit:4;stroke-dasharray:none;stroke-opacity:1"
     d="m 361.63459,124.8643 c 0,0 0,4 0,4"
     id="path1131"
     inkscape:connector-curvature="0"
     inkscape:path-effect="#path-effect1133"
     inkscape:original-d="m 361.63459,124.8643 v 4" />
  <path
     style="fill:none;stroke:#df0000;stroke-width:0.012;stroke-linecap:butt;stroke-linejoin:miter;stroke-miterlimit:4;stroke-dasharray:none;stroke-opacity:1"
     d="m 367.64815,124.8643 c 0,0 0,4 0,4"
     id="path1135"
     inkscape:connector-curvature="0"
     inkscape:path-effect="#path-effect1137"
     inkscape:original-d="m 367.64815,124.8643 v 4" />
  <path
     style="fill:none;stroke:#df0000;stroke-width:0.012;stroke-linecap:butt;stroke-linejoin:miter;stroke-miterlimit:4;stroke-dasharray:none;stroke-opacity:1"
     d="m 374.29648,124.8643 c 0,0 0,4 0,4"
     id="path1139"
     inkscape:connector-curvature="0"
     inkscape:path-effect="#path-effect1141"
     inkscape:original-d="m 374.29648,124.8643 v 4" />
  <path
     style="fill:none;stroke:#df0000;stroke-width:0.012;stroke-linecap:butt;stroke-linejoin:miter;stroke-miterlimit:4;stroke-dasharray:none;stroke-opacity:1"
     d="m 380.34345,124.8643 c 0,0 0,4 0,4"
     id="path1143"
     inkscape:connector-curvature="0"
     inkscape:path-effect="#path-effect1145"
     inkscape:original-d="m 380.34345,124.8643 v 4" />
  <path
     style="fill:none;stroke:#df0000;stroke-width:0.012;stroke-linecap:butt;stroke-linejoin:miter;stroke-miterlimit:4;stroke-dasharray:none;stroke-opacity:1"
     d="m 386.99178,124.8643 c 0,0 0,4 0,4"
     id="path1147"
     inkscape:connector-curvature="0"
     inkscape:path-effect="#path-effect1149"
     inkscape:original-d="m 386.99178,124.8643 v 4" />
  <path
     style="fill:none;stroke:#df0000;stroke-width:0.012;stroke-linecap:butt;stroke-linejoin:miter;stroke-miterlimit:4;stroke-dasharray:none;stroke-opacity:1"
     d="m 393.10558,124.8643 c 0,0 0,4 0,4"
     id="path1151"
     inkscape:connector-curvature="0"
     inkscape:path-effect="#path-effect1153"
     inkscape:original-d="m 393.10558,124.8643 v 4" />
  <path
     style="fill:none;stroke:#df0000;stroke-width:0.012;stroke-linecap:butt;stroke-linejoin:miter;stroke-miterlimit:4;stroke-dasharray:none;stroke-opacity:1"
     d="m 399.7205,124.8643 c 0,0 0,4 0,4"
     id="path1155"
     inkscape:connector-curvature="0"
     inkscape:path-effect="#path-effect1157"
     inkscape:original-d="m 399.7205,124.8643 v 4" />
  <path
     style="fill:none;stroke:#df0000;stroke-width:0.012;stroke-linecap:butt;stroke-linejoin:miter;stroke-miterlimit:4;stroke-dasharray:none;stroke-opacity:1"
     d="m 403.21409,125.00166 c 0,0 0,3.86234 0,3.86234"
     id="path1159"
     inkscape:connector-curvature="0"
     inkscape:path-effect="#path-effect1161"
     inkscape:original-d="M 403.21409,125.00166 V 128.864" />
  <rect
     style="opacity:1;fill:#ffffff;fill-opacity:1;fill-rule:evenodd;stroke:none;stroke-width:0.012;stroke-miterlimit:4;stroke-dasharray:none;stroke-dashoffset:0;stroke-opacity:1"
     id="rect4935"
     width="6.6019998"
     height="4.3422737"
     x="316.84033"
     y="124.72995" />
  <rect
     style="opacity:1;fill:#ffffff;fill-opacity:1;fill-rule:evenodd;stroke:none;stroke-width:0.012;stroke-miterlimit:4;stroke-dasharray:none;stroke-dashoffset:0;stroke-opacity:1"
     id="rect4935-7"
     width="6.7425604"
     height="4.416688"
     x="354.86722"
     y="124.52199" />
  <rect
     style="opacity:1;fill:#ffffff;fill-opacity:1;fill-rule:evenodd;stroke:none;stroke-width:0.012;stroke-miterlimit:4;stroke-dasharray:none;stroke-dashoffset:0;stroke-opacity:1"
     id="rect4935-4"
     width="6.6516094"
     height="4.4084196"
     x="329.50211"
     y="124.52199" />
  <rect
     style="opacity:1;fill:#ffffff;fill-opacity:1;fill-rule:evenodd;stroke:none;stroke-width:0.012;stroke-miterlimit:4;stroke-dasharray:none;stroke-dashoffset:0;stroke-opacity:1"
     id="rect4935-0"
     width="6.7189302"
     height="4.4825902"
     x="342.17523"
     y="124.72394" />
  <rect
     style="opacity:1;fill:#ffffff;fill-opacity:1;fill-rule:evenodd;stroke:none;stroke-width:0.012;stroke-miterlimit:4;stroke-dasharray:none;stroke-dashoffset:0;stroke-opacity:1"
     id="rect4935-7-7"
     width="6.6122513"
     height="4.4724774"
     x="367.6586"
     y="124.44755" />
  <rect
     style="opacity:1;fill:#ffffff;fill-opacity:1;fill-rule:evenodd;stroke:none;stroke-width:0.012;stroke-miterlimit:4;stroke-dasharray:none;stroke-dashoffset:0;stroke-opacity:1"
     id="rect4935-7-8"
     width="6.6157384"
     height="4.5840564"
     x="380.35574"
     y="124.32551" />
  <rect
     style="opacity:1;fill:#ffffff;fill-opacity:1;fill-rule:evenodd;stroke:none;stroke-width:0.012;stroke-miterlimit:4;stroke-dasharray:none;stroke-dashoffset:0;stroke-opacity:1"
     id="rect4935-7-9"
     width="6.5824423"
     height="4.5874414"
     x="393.12833"
     y="124.70712" />
  <rect
     style="opacity:0.9;fill:none;fill-opacity:1;fill-rule:evenodd;stroke:#110000;stroke-width:0.31200004;stroke-miterlimit:4;stroke-dasharray:none;stroke-opacity:1"
     id="rect858"
     width="67.688004"
     height="53.978809"
     x="325.20197"
     y="129.2849" />
  <path
     style="fill:none;stroke:#ff0000;stroke-width:0.012;stroke-linecap:butt;stroke-linejoin:miter;stroke-miterlimit:4;stroke-dasharray:none;stroke-dashoffset:0.06;stroke-opacity:1"
     d="m 310.8114,315.68459 h 90"
     id="path868-1"
     inkscape:connector-curvature="0"
     inkscape:path-effect="#path-effect4886-0"
     inkscape:original-d="m 310.8114,315.68459 h 90" />
  <path
     style="fill:none;stroke:#ff0000;stroke-width:0.012;stroke-linecap:butt;stroke-linejoin:miter;stroke-miterlimit:4;stroke-dasharray:none;stroke-dashoffset:0;stroke-opacity:1"
     d="m 310.8114,319.68469 h 90"
     id="path868-2-4"
     inkscape:connector-curvature="0" />
  <path
     style="fill:none;stroke:#df0000;stroke-width:0.012;stroke-linecap:butt;stroke-linejoin:miter;stroke-miterlimit:4;stroke-dasharray:none;stroke-dashoffset:0;stroke-opacity:1"
     d="m 310.81731,315.68758 c 0,0 0,4.00001 0,4.00001"
     id="path1093-6"
     inkscape:connector-curvature="0"
     inkscape:path-effect="#path-effect1095-1"
     inkscape:original-d="m 310.81731,315.68758 v 4.00001" />
  <path
     style="fill:none;stroke:#df0000;stroke-width:0.012;stroke-linecap:butt;stroke-linejoin:miter;stroke-miterlimit:4;stroke-dasharray:none;stroke-dashoffset:0;stroke-opacity:1"
     d="m 314.43084,315.68789 c 0,0 0,4 0,4"
     id="path1101-2"
     inkscape:connector-curvature="0"
     inkscape:path-effect="#path-effect1103-3"
     inkscape:original-d="m 314.43084,315.68789 v 4" />
  <path
     style="fill:none;stroke:#df0000;stroke-width:0.012;stroke-linecap:butt;stroke-linejoin:miter;stroke-miterlimit:4;stroke-dasharray:none;stroke-opacity:1"
     d="m 321.04576,315.68789 c 0,0 0,4 0,4"
     id="path1105-8"
     inkscape:connector-curvature="0"
     inkscape:path-effect="#path-effect1107-3"
     inkscape:original-d="m 321.04576,315.68789 v 4" />
  <path
     style="fill:none;stroke:#df0000;stroke-width:0.012;stroke-linecap:butt;stroke-linejoin:miter;stroke-miterlimit:4;stroke-dasharray:none;stroke-opacity:1"
     d="m 327.09273,315.68789 c 0,0 0,4 0,4"
     id="path1111-6"
     inkscape:connector-curvature="0"
     inkscape:path-effect="#path-effect1113-2"
     inkscape:original-d="m 327.09273,315.68789 v 4" />
  <path
     style="fill:none;stroke:#df0000;stroke-width:0.012;stroke-linecap:butt;stroke-linejoin:miter;stroke-miterlimit:4;stroke-dasharray:none;stroke-opacity:1"
     d="m 333.77447,315.68789 c 0,0 0,4 0,4"
     id="path1115-8"
     inkscape:connector-curvature="0"
     inkscape:path-effect="#path-effect1117-1"
     inkscape:original-d="m 333.77447,315.68789 v 4" />
  <path
     style="fill:none;stroke:#df0000;stroke-width:0.012;stroke-linecap:butt;stroke-linejoin:miter;stroke-miterlimit:4;stroke-dasharray:none;stroke-opacity:1"
     d="m 339.75463,315.68789 c 0,0 0,4 0,4"
     id="path1119-0"
     inkscape:connector-curvature="0"
     inkscape:path-effect="#path-effect1121-5"
     inkscape:original-d="m 339.75463,315.68789 v 4" />
  <path
     style="fill:none;stroke:#df0000;stroke-width:0.012;stroke-linecap:butt;stroke-linejoin:miter;stroke-miterlimit:4;stroke-dasharray:none;stroke-opacity:1"
     d="m 346.50319,315.68789 c 0,0 0,4 0,4"
     id="path1123-1"
     inkscape:connector-curvature="0"
     inkscape:path-effect="#path-effect1125-0"
     inkscape:original-d="m 346.50319,315.68789 v 4" />
  <path
     style="fill:none;stroke:#df0000;stroke-width:0.012;stroke-linecap:butt;stroke-linejoin:miter;stroke-miterlimit:4;stroke-dasharray:none;stroke-opacity:1"
     d="m 352.44993,315.68789 c 0,0 0,4 0,4"
     id="path1127-3"
     inkscape:connector-curvature="0"
     inkscape:path-effect="#path-effect1129-1"
     inkscape:original-d="m 352.44993,315.68789 v 4" />
  <path
     style="fill:none;stroke:#df0000;stroke-width:0.012;stroke-linecap:butt;stroke-linejoin:miter;stroke-miterlimit:4;stroke-dasharray:none;stroke-opacity:1"
     d="m 359.2319,315.68789 c 0,0 0,4 0,4"
     id="path1131-9"
     inkscape:connector-curvature="0"
     inkscape:path-effect="#path-effect1133-8"
     inkscape:original-d="m 359.2319,315.68789 v 4" />
  <path
     style="fill:none;stroke:#df0000;stroke-width:0.012;stroke-linecap:butt;stroke-linejoin:miter;stroke-miterlimit:4;stroke-dasharray:none;stroke-opacity:1"
     d="m 365.24546,315.68789 c 0,0 0,4 0,4"
     id="path1135-1"
     inkscape:connector-curvature="0"
     inkscape:path-effect="#path-effect1137-0"
     inkscape:original-d="m 365.24546,315.68789 v 4" />
  <path
     style="fill:none;stroke:#df0000;stroke-width:0.012;stroke-linecap:butt;stroke-linejoin:miter;stroke-miterlimit:4;stroke-dasharray:none;stroke-opacity:1"
     d="m 371.89379,315.68789 c 0,0 0,4 0,4"
     id="path1139-5"
     inkscape:connector-curvature="0"
     inkscape:path-effect="#path-effect1141-5"
     inkscape:original-d="m 371.89379,315.68789 v 4" />
  <path
     style="fill:none;stroke:#df0000;stroke-width:0.012;stroke-linecap:butt;stroke-linejoin:miter;stroke-miterlimit:4;stroke-dasharray:none;stroke-opacity:1"
     d="m 377.94076,315.68789 c 0,0 0,4 0,4"
     id="path1143-3"
     inkscape:connector-curvature="0"
     inkscape:path-effect="#path-effect1145-8"
     inkscape:original-d="m 377.94076,315.68789 v 4" />
  <path
     style="fill:none;stroke:#df0000;stroke-width:0.012;stroke-linecap:butt;stroke-linejoin:miter;stroke-miterlimit:4;stroke-dasharray:none;stroke-opacity:1"
     d="m 384.58909,315.68789 c 0,0 0,4 0,4"
     id="path1147-6"
     inkscape:connector-curvature="0"
     inkscape:path-effect="#path-effect1149-9"
     inkscape:original-d="m 384.58909,315.68789 v 4" />
  <path
     style="fill:none;stroke:#df0000;stroke-width:0.012;stroke-linecap:butt;stroke-linejoin:miter;stroke-miterlimit:4;stroke-dasharray:none;stroke-opacity:1"
     d="m 390.70289,315.68789 c 0,0 0,4 0,4"
     id="path1151-8"
     inkscape:connector-curvature="0"
     inkscape:path-effect="#path-effect1153-7"
     inkscape:original-d="m 390.70289,315.68789 v 4" />
  <path
     style="fill:none;stroke:#df0000;stroke-width:0.012;stroke-linecap:butt;stroke-linejoin:miter;stroke-miterlimit:4;stroke-dasharray:none;stroke-opacity:1"
     d="m 397.31781,315.68789 c 0,0 0,4 0,4"
     id="path1155-5"
     inkscape:connector-curvature="0"
     inkscape:path-effect="#path-effect1157-7"
     inkscape:original-d="m 397.31781,315.68789 v 4" />
  <path
     style="fill:none;stroke:#df0000;stroke-width:0.012;stroke-linecap:butt;stroke-linejoin:miter;stroke-miterlimit:4;stroke-dasharray:none;stroke-opacity:1"
     d="m 400.8114,315.82525 c 0,0 0,3.86234 0,3.86234"
     id="path1159-7"
     inkscape:connector-curvature="0"
     inkscape:path-effect="#path-effect1161-3"
     inkscape:original-d="m 400.8114,315.82525 v 3.86234" />
  <rect
     style="opacity:1;fill:#ffffff;fill-opacity:1;fill-rule:evenodd;stroke:none;stroke-width:0.012;stroke-miterlimit:4;stroke-dasharray:none;stroke-dashoffset:0;stroke-opacity:1"
     id="rect4935-41"
     width="6.6019998"
     height="4.3422737"
     x="314.44208"
     y="315.55334" />
  <rect
     style="opacity:1;fill:#ffffff;fill-opacity:1;fill-rule:evenodd;stroke:none;stroke-width:0.012;stroke-miterlimit:4;stroke-dasharray:none;stroke-dashoffset:0;stroke-opacity:1"
     id="rect4935-7-4"
     width="6.7425604"
     height="4.416688"
     x="352.46454"
     y="315.34537" />
  <rect
     style="opacity:1;fill:#ffffff;fill-opacity:1;fill-rule:evenodd;stroke:none;stroke-width:0.012;stroke-miterlimit:4;stroke-dasharray:none;stroke-dashoffset:0;stroke-opacity:1"
     id="rect4935-4-8"
     width="6.6516099"
     height="4.4084196"
     x="327.09943"
     y="315.34537" />
  <rect
     style="opacity:1;fill:#ffffff;fill-opacity:1;fill-rule:evenodd;stroke:none;stroke-width:0.012;stroke-miterlimit:4;stroke-dasharray:none;stroke-dashoffset:0;stroke-opacity:1"
     id="rect4935-7-7-2"
     width="6.6122513"
     height="4.4724774"
     x="365.25592"
     y="315.27094" />
  <rect
     style="opacity:1;fill:#ffffff;fill-opacity:1;fill-rule:evenodd;stroke:none;stroke-width:0.012;stroke-miterlimit:4;stroke-dasharray:none;stroke-dashoffset:0;stroke-opacity:1"
     id="rect4935-7-8-5"
     width="6.6157384"
     height="4.5840564"
     x="377.95306"
     y="315.1489" />
  <rect
     style="opacity:1;fill:#ffffff;fill-opacity:1;fill-rule:evenodd;stroke:none;stroke-width:0.012;stroke-miterlimit:4;stroke-dasharray:none;stroke-dashoffset:0;stroke-opacity:1"
     id="rect4935-4-8-2"
     width="6.689249"
     height="4.4084196"
     x="339.77911"
     y="315.48117" />
  <rect
     style="opacity:1;fill:#ffffff;fill-opacity:1;fill-rule:evenodd;stroke:none;stroke-width:0.012;stroke-miterlimit:4;stroke-dasharray:none;stroke-dashoffset:0;stroke-opacity:1"
     id="rect4935-4-8-4"
     width="6.5770936"
     height="4.4084196"
     x="390.71729"
     y="315.45605" />
  <rect
     style="opacity:1;fill:#ffffff;fill-opacity:1;fill-rule:evenodd;stroke:#000000;stroke-width:0.11200001;stroke-linecap:round;stroke-miterlimit:4;stroke-dasharray:none;stroke-opacity:1"
     id="rect1310"
     width="39.888"
     height="9.8879995"
     x="4.245275"
     y="303.87927" />
  <rect
     style="opacity:1;fill:#ffffff;fill-opacity:1;fill-rule:evenodd;stroke:#ff0000;stroke-width:0.112;stroke-linecap:round;stroke-miterlimit:4;stroke-dasharray:none;stroke-opacity:1"
     id="rect2746"
     width="9.8879995"
     height="4.888"
     x="7.0560002"
     y="308.2186" />
  <rect
     style="opacity:1;fill:#ffffff;fill-opacity:1;fill-rule:evenodd;stroke:#ff0000;stroke-width:0.112;stroke-linecap:round;stroke-miterlimit:4;stroke-dasharray:none;stroke-opacity:1"
     id="rect2746-0"
     width="15.888"
     height="6.888"
     x="25.056"
     y="306.21899" />
</svg>
